データ操作
…
data.frameから列を選択します。ここではdplyrパッケージにあるselect関数を使用します。

select関数とは

使い方と簡単な例

select(.data, ...)

試しに、irisデータよりSepal.LengthとSpeciesを取り出してみましょう:

library(dplyr)

select(.data = iris, Sepal.Length, Species)

## # A tibble: 150 x 2
##    Sepal.Length Species
##           <dbl> <fct>  
##  1         5.10 setosa 
##  2         4.90 setosa 
##  3         4.70 setosa 
##  4         4.60 setosa 
##  5         5.00 setosa 
##  6         5.40 setosa 
##  7         4.60 setosa 
##  8         5.00 setosa 
##  9         4.40 setosa 
## 10         4.90 setosa 
## # ... with 140 more rows

このように、引数の...にピックアップしたい引数を指定すると持ってきてくれます。

また、-を変数名の頭につけると、その変数を除外します:

select(iris, -Species)

## # A tibble: 150 x 4
##    Sepal.Length Sepal.Width Petal.Length Petal.Width
##           <dbl>       <dbl>        <dbl>       <dbl>
##  1         5.10        3.50         1.40       0.200
##  2         4.90        3.00         1.40       0.200
##  3         4.70        3.20         1.30       0.200
##  4         4.60        3.10         1.50       0.200
##  5         5.00        3.60         1.40       0.200
##  6         5.40        3.90         1.70       0.400
##  7         4.60        3.40         1.40       0.300
##  8         5.00        3.40         1.50       0.200
##  9         4.40        2.90         1.40       0.200
## 10         4.90        3.10         1.50       0.100
## # ... with 140 more rows

select(iris, -c(Sepal.Length, Petal.Length))

## # A tibble: 150 x 3
##    Sepal.Width Petal.Width Species
##          <dbl>       <dbl> <fct>  
##  1        3.50       0.200 setosa 
##  2        3.00       0.200 setosa 
##  3        3.20       0.200 setosa 
##  4        3.10       0.200 setosa 
##  5        3.60       0.200 setosa 
##  6        3.90       0.400 setosa 
##  7        3.40       0.300 setosa 
##  8        3.40       0.200 setosa 
##  9        2.90       0.200 setosa 
## 10        3.10       0.100 setosa 
## # ... with 140 more rows
…
num_range()

one_of()

everything()

これらを使えば、かなり思うように列を選択できるようになります。

列名の前方一致 starts_with()

列名を前方一致で持ってきます:

select(iris, starts_with("petal"))

## # A tibble: 150 x 2
##    Petal.Length Petal.Width
##           <dbl>       <dbl>
##  1         1.40       0.200
##  2         1.40       0.200
##  3         1.30       0.200
##  4         1.50       0.200
##  5         1.40       0.200
##  6         1.70       0.400
##  7         1.40       0.300
##  8         1.50       0.200
##  9         1.40       0.200
## 10         1.50       0.100
## # ... with 140 more rows

なお、上記の通りデフォルトでは大文字小文字の区別はしません。区別させたければ、引数としてignore.case = FALSEを指定してください:

select(iris, starts_with("petal", ignore.case = FALSE))

## # A tibble: 150 x 0

select(iris, starts_with("Petal", ignore.case = FALSE))

## # A tibble: 150 x 2
##    Petal.Length Petal.Width
##           <dbl>       <dbl>
##  1         1.40       0.200
##  2         1.40       0.200
##  3         1.30       0.200
##  4         1.50       0.200
##  5         1.40       0.200
##  6         1.70       0.400
##  7         1.40       0.300
##  8         1.50       0.200
##  9         1.40       0.200
## 10         1.50       0.100
## # ... with 140 more rows

列名の後方一致 ends_with()

列名を後方一致で持ってきます:

select(iris, ends_with("Width"))

## # A tibble: 150 x 2
##    Sepal.Width Petal.Width
##          <dbl>       <dbl>
##  1        3.50       0.200
##  2        3.00       0.200
##  3        3.20       0.200
##  4        3.10       0.200
##  5        3.60       0.200
##  6        3.90       0.400
##  7        3.40       0.300
##  8        3.40       0.200
##  9        2.90       0.200
## 10        3.10       0.100
## # ... with 140 more rows

上述のstarts_with()の後方一致版ですので、大文字小文字の扱いも含め同一です。

列名の部分一致 contains()

列名を部分一致で持ってきます:

select(iris, contains("etal"))

## # A tibble: 150 x 2
##    Petal.Length Petal.Width
##           <dbl>       <dbl>
##  1         1.40       0.200
##  2         1.40       0.200
##  3         1.30       0.200
##  4         1.50       0.200
##  5         1.40       0.200
##  6         1.70       0.400
##  7         1.40       0.300
##  8         1.50       0.200
##  9         1.40       0.200
## 10         1.50       0.100
## # ... with 140 more rows

指定した文字列を含む列をすべて選択します。大文字小文字の扱いは上記と同一です。

列名の正規表現による一致 matches()

正規表現を用いてmatchした列名を全て持ってきます:

select(iris, matches(".t."))

## # A tibble: 150 x 4
##    Sepal.Length Sepal.Width Petal.Length Petal.Width
##           <dbl>       <dbl>        <dbl>       <dbl>
##  1         5.10        3.50         1.40       0.200
##  2         4.90        3.00         1.40       0.200
##  3         4.70        3.20         1.30       0.200
##  4         4.60        3.10         1.50       0.200
##  5         5.00        3.60         1.40       0.200
##  6         5.40        3.90         1.70       0.400
##  7         4.60        3.40         1.40       0.300
##  8         5.00        3.40         1.50       0.200
##  9         4.40        2.90         1.40       0.200
## 10         4.90        3.10         1.50       0.100
## # ... with 140 more rows
…
行(レコード)を条件によりフィルタリングして、必要な行(レコード)を残します。ここではdplyrパッケージにあるfilter関数を利用します。

filter関数とは

使い方と簡単な例

filter(.data, ...)

試しに、irisデータよりSepal.Length > 6を満たすレコードを抽出してみます:

library(dplyr)
filter(iris, Sepal.Length > 6)

## # A tibble: 61 x 5
##    Sepal.Length Sepal.Width Petal.Length Petal.Width Species   
##           <dbl>       <dbl>        <dbl>       <dbl> <fct>     
##  1         7.00        3.20         4.70        1.40 versicolor
##  2         6.40        3.20         4.50        1.50 versicolor
##  3         6.90        3.10         4.90        1.50 versicolor
##  4         6.50        2.80         4.60        1.50 versicolor
##  5         6.30        3.30         4.70        1.60 versicolor
##  6         6.60        2.90         4.60        1.30 versicolor
##  7         6.10        2.90         4.70        1.40 versicolor
##  8         6.70        3.10         4.40        1.40 versicolor
##  9         6.20        2.20         4.50        1.50 versicolor
## 10         6.10        2.80         4.00        1.30 versicolor
## # ... with 51 more rows
…
mutate関数とは

データセットに新たに変数を追加する関数です。また、既存の変数の書き換えも可能です。dplyrパッケージでも高頻度で利用される基本的な関数の一つです。

使い方と例

mutate(.data, ...)

試しに、irisデータのSepal.Lengthの値を2倍した変数としてkosakiという変数を作成してみます:

library(dplyr)
mutate(iris, kosaki = Sepal.Length * 2)

## # A tibble: 150 x 6
##    Sepal.Length Sepal.Width Petal.Length Petal.Width Species kosaki
##           <dbl>       <dbl>        <dbl>       <dbl> <fct>    <dbl>
##  1         5.10        3.50         1.40       0.200 setosa   10.2 
##  2         4.90        3.00         1.40       0.200 setosa    9.80
##  3         4.70        3.20         1.30       0.200 setosa    9.40
##  4         4.60        3.10         1.50       0.200 setosa    9.20
##  5         5.00        3.60         1.40       0.200 setosa   10.0 
##  6         5.40        3.90         1.70       0.400 setosa   10.8 
##  7         4.60        3.40         1.40       0.300 setosa    9.20
##  8         5.00        3.40         1.50       0.200 setosa   10.0 
##  9         4.40        2.90         1.40       0.200 setosa    8.80
## 10         4.90        3.10         1.50       0.100 setosa    9.80
## # ... with 140 more rows

このように、引数の...で受け取った内容を評価し、.dataで指定したデータセットの最後に追加します。また、変数名として既存の名前を与えると、その変数が上書きされます:

mutate(iris, Sepal.Length = Sepal.Width * 3)

## # A tibble: 150 x 5
##    Sepal.Length Sepal.Width Petal.Length Petal.Width Species
##           <dbl>       <dbl>        <dbl>       <dbl> <fct>  
##  1        10.5         3.50         1.40       0.200 setosa 
##  2         9.00        3.00         1.40       0.200 setosa 
##  3         9.60        3.20         1.30       0.200 setosa 
##  4         9.30        3.10         1.50       0.200 setosa 
##  5        10.8         3.60         1.40       0.200 setosa 
##  6        11.7         3.90         1.70       0.400 setosa 
##  7        10.2         3.40         1.40       0.300 setosa 
##  8        10.2         3.40         1.50       0.200 setosa 
##  9         8.70        2.90         1.40       0.200 setosa 
## 10         9.30        3.10         1.50       0.100 setosa 
## # ... with 140 more rows
…
注意事項ですが，順番が重要で最初に書いてあるものが優先されます。s3とs4のコードと出力を比較してください。

データのグループ化と要約統計量

「ある変数の値ごとに処理をして平均や標準偏差を算出したい」という時には、グループ化の処理を行います。ここではdplyrパッケージのgroup_by関数を利用します。

また、集計をするにはdplyrパッケージのsummarize関数もしくはsummarise関数を利用します。

実例

library(dplyr)
df <- group_by(iris, Species)
df

## # A tibble: 150 x 5
## # Groups:   Species [3]
##    Sepal.Length Sepal.Width Petal.Length Petal.Width Species
##           <dbl>       <dbl>        <dbl>       <dbl> <fct>  
##  1         5.10        3.50         1.40       0.200 setosa 
##  2         4.90        3.00         1.40       0.200 setosa 
##  3         4.70        3.20         1.30       0.200 setosa 
##  4         4.60        3.10         1.50       0.200 setosa 
##  5         5.00        3.60         1.40       0.200 setosa 
##  6         5.40        3.90         1.70       0.400 setosa 
##  7         4.60        3.40         1.40       0.300 setosa 
##  8         5.00        3.40         1.50       0.200 setosa 
##  9         4.40        2.90         1.40       0.200 setosa 
## 10         4.90        3.10         1.50       0.100 setosa 
## # ... with 140 more rows

見た目では変化していないように見えますが、これでグループ化されて処理されるようになります:

mutate(df, x1 = cumsum(Sepal.Length))

## # A tibble: 150 x 6
## # Groups:   Species [3]
##    Sepal.Length Sepal.Width Petal.Length Petal.Width Species    x1
##           <dbl>       <dbl>        <dbl>       <dbl> <fct>   <dbl>
##  1         5.10        3.50         1.40       0.200 setosa   5.10
##  2         4.90        3.00         1.40       0.200 setosa  10.0 
##  3         4.70        3.20         1.30       0.200 setosa  14.7 
##  4         4.60        3.10         1.50       0.200 setosa  19.3 
##  5         5.00        3.60         1.40       0.200 setosa  24.3 
##  6         5.40        3.90         1.70       0.400 setosa  29.7 
##  7         4.60        3.40         1.40       0.300 setosa  34.3 
##  8         5.00        3.40         1.50       0.200 setosa  39.3 
##  9         4.40        2.90         1.40       0.200 setosa  43.7 
## 10         4.90        3.10         1.50       0.100 setosa  48.6 
## # ... with 140 more rows
…
データセットを縦型(long型)あるいは横型(wide型)へと変換します。tidy dataという考え方がポイントになりますので、このあたりについては一度別資料を探してみてください。

実例

縦型へ変換

tidyrパッケージのgather関数で行えます:

library(tidyr)
gather(iris, key = hoge, value = fuga, -Species)

## # A tibble: 600 x 3
##    Species hoge          fuga
##    <fct>   <chr>        <dbl>
##  1 setosa  Sepal.Length  5.10
##  2 setosa  Sepal.Length  4.90
##  3 setosa  Sepal.Length  4.70
##  4 setosa  Sepal.Length  4.60
##  5 setosa  Sepal.Length  5.00
##  6 setosa  Sepal.Length  5.40
##  7 setosa  Sepal.Length  4.60
##  8 setosa  Sepal.Length  5.00
##  9 setosa  Sepal.Length  4.40
## 10 setosa  Sepal.Length  4.90
## # ... with 590 more rows
…
## # A tibble: 6 x 4
##   Species id    hoge          fuga
## * <fct>   <chr> <chr>        <dbl>
## 1 setosa  1     Sepal.Length  5.10
## 2 setosa  2     Sepal.Length  4.90
## 3 setosa  3     Sepal.Length  4.70
## 4 setosa  4     Sepal.Length  4.60
## 5 setosa  5     Sepal.Length  5.00
## 6 setosa  6     Sepal.Length  5.40

# これを再度バラします
spread(df, key = hoge, value = fuga)

## # A tibble: 150 x 6
##    Species id    Petal.Length Petal.Width Sepal.Length Sepal.Width
##    <fct>   <chr>        <dbl>       <dbl>        <dbl>       <dbl>
##  1 setosa  1             1.40       0.200         5.10        3.50
##  2 setosa  10            1.50       0.100         4.90        3.10
##  3 setosa  11            1.50       0.200         5.40        3.70
##  4 setosa  12            1.60       0.200         4.80        3.40
##  5 setosa  13            1.40       0.100         4.80        3.00
##  6 setosa  14            1.10       0.100         4.30        3.00
##  7 setosa  15            1.20       0.200         5.80        4.00
##  8 setosa  16            1.50       0.400         5.70        4.40
##  9 setosa  17            1.30       0.400         5.40        3.90
## 10 setosa  18            1.40       0.300         5.10        3.50
## # ... with 140 more rows
…
